{
	"404.city": {
		"lastCheck": {
			"content": "2022-04-22",
			"comment": ""
		},
		"website": {
			"content": {
				"en": "https://404.city"
			},
			"comment": ""
		},
		"busFactor": {
			"content": -1,
			"source": "",
			"comment": "Statement must be added to website"
		},
		"company": {
			"content": false,
			"source": "https://wiki.404.city/404.city/terms_of_use",
			"comment": "It should be clarified who operates the service"
		},
		"passwordReset": {
			"content": {},
			"comment": "https://wiki.404.city/404.city/privacy_policy states that email is used for automatic password reset but functionality cannot be found"
		},
		"inBandRegistration": {
			"content": false,
			"source": "",
			"comment": "Tested with Kaidan; Statement about disabled in-band registration should be added to https://404.city/#registration"
		},
		"registrationWebPage": {
			"content": {
				"en": "https://404.city/#registration"
			},
			"comment": ""
		},
		"ratingXmppComplianceTester": {
			"content": 100,
			"source": "https://compliance.conversations.im/server/404.city/",
			"comment": ""
		},
		"ratingImObservatoryClientToServer": {
			"content": "A",
			"source": "https://xmpp.net/result.php?domain=404.city&type=client",
			"comment": ""
		},
		"ratingImObservatoryServerToServer": {
			"content": "A",
			"source": "https://xmpp.net/result.php?domain=404.city&type=server",
			"comment": ""
		},
		"maximumHttpFileUploadFileSize": {
			"content": -1,
			"source": "",
			"comment": "Statement must be added to https://404.city"
		},
		"maximumHttpFileUploadTotalSize": {
			"content": 2000,
			"source": "https://404.city",
			"comment": "Term 'File storage size' should be improved in order to clarify what is actually meant; Contradictory statement with 1000 MB should be removed from https://404.city"
		},
		"maximumHttpFileUploadStorageTime": {
			"content": 7,
			"source": "https://404.city",
			"comment": ""
		},
		"maximumMessageArchiveManagementStorageTime": {
			"content": 7,
			"source": "https://404.city",
			"comment": "'Messanges' should be 'Messages' on https://404.city"
		},
		"professionalHosting": {
			"content": false,
			"source": "https://404.city",
			"comment": "Statement about hosting company (name / link) and backup details (location / frequency) must be added to https://404.city"
		},
		"freeOfCharge": {
			"content": true,
			"source": "",
			"comment": "Statement about the service being 'free of charge' or 'for free' should be added to https://404.city"
		},
		"legalNotice": {
			"content": {
				"en": "https://wiki.404.city/404.city/privacy_policy"
			},
			"comment": ""
		},
		"serverLocations": {
			"content": [
				"fr"
			],
			"source": "https://404.city",
			"comment": ""
		},
		"groupChatSupport": {},
		"chatSupport": {
			"en": {
				"content": [
					"support@404.city"
				],
				"source": "https://404.city/#",
				"comment": ""
			}
		},
		"emailSupport": {
			"en": {
				"content": [
					"support@404.city"
				],
				"source": "https://404.city/#",
				"comment": ""
			}
		},
		"since": {
			"content": "2015-12-31",
			"source": "https://404.city",
			"comment": "Precise date should be added to website; Current date has only valid year from copyright notice"
		}
	},
	"5222.de": {
		"lastCheck": {
			"content": "2022-01-20",
			"comment": ""
		},
		"website": {
			"content": {
				"de": "https://5222.de"
			},
			"comment": ""
		},
		"busFactor": {
			"content": 2,
			"source": "",
			"comment": "It should be clarified on https://5222.de/about/ if the service can be operated by each of them independently; If not, the bus factor must be set to 1"
		},
		"company": {
			"content": false,
			"source": "https://5222.de/tos/",
			"comment": ""
		},
		"passwordReset": {
			"content": {},
			"source": "https://5222.de/register/",
			"comment": ""
		},
		"inBandRegistration": {
			"content": false,
			"source": "",
			"comment": "Tested with Kaidan; Statement about disabled in-band registration should be added to https://5222.de/register/ instead of blog post https://5222.de/posts/20170419_inband_registration_deaktiviert/"
		},
		"registrationWebPage": {
			"content": {
				"de": "https://5222.de/register/"
			},
			"comment": ""
		},
		"ratingXmppComplianceTester": {
			"content": 100,
			"source": "https://compliance.conversations.im/server/5222.de/",
			"comment": ""
		},
		"ratingImObservatoryClientToServer": {
			"content": "A",
			"source": "https://xmpp.net/result.php?domain=5222.de&type=client",
			"comment": "Rating is currently wrongly 'T' because of https://github.com/xmpp-observatory/xmppoke/issues/10"
		},
		"ratingImObservatoryServerToServer": {
			"content": "A",
			"source": "https://xmpp.net/result.php?domain=5222.de&type=server",
			"comment": "Rating is currently wrongly 'T' because of https://github.com/xmpp-observatory/xmppoke/issues/10"
		},
		"maximumHttpFileUploadFileSize": {
			"content": 50,
			"source": "https://5222.de/tech/#limitierungen",
			"comment": ""
		},
		"maximumHttpFileUploadTotalSize": {
			"content": 20000,
			"source": "https://5222.de/tech/#limitierungen",
			"comment": ""
		},
		"maximumHttpFileUploadStorageTime": {
			"content": 30,
			"source": "https://5222.de/tech/#limitierungen",
			"comment": ""
		},
		"maximumMessageArchiveManagementStorageTime": {
			"content": 7,
			"source": "https://5222.de/tech/#limitierungen",
			"comment": ""
		},
		"professionalHosting": {
			"content": true,
			"source": "https://5222.de/tech/#hardware",
			"comment": ""
		},
		"freeOfCharge": {
			"content": true,
			"source": "https://5222.de/tos/",
			"comment": ""
		},
		"legalNotice": {
			"content": {
				"de": "https://5222.de/privacy/"
			},
			"comment": ""
		},
		"serverLocations": {
			"content": [
				"de"
			],
			"source": "https://5222.de/tech/#hardware",
			"comment": ""
		},
		"groupChatSupport": {
			"de": {
				"content": [
					"support@muc.5222.de"
				],
				"source": "https://5222.de",
				"comment": "URI should be a link"
			}
		},
		"chatSupport": {
			"de": {
				"content": [
					"chr@5222.de"
				],
				"source": "https://5222.de/privacy/",
				"comment": "URI should be a link on https://5222.de"
			}
		},
		"emailSupport": {
			"de": {
				"content": [
					"admin@5222.de"
				],
				"source": "https://5222.de",
				"comment": "URI should be a link"
			}
		},
		"since": {
			"content": "2017-02-07",
			"source": "https://5222.de/posts/20170207_eine_reihe_neuerungen/",
			"comment": "Precise date should be added to website; Current date is of first blog post"
		}
	},
	"anoxinon.me": {
		"lastCheck": {
			"content": "2021-11-10",
			"comment": ""
		},
		"website": {
			"content": {
				"de": "https://anoxinon.de/dienste/anoxinonmessenger/"
			},
			"comment": ""
		},
		"busFactor": {
			"content": -1,
			"source": "",
			"comment": "Statement must be added to https://anoxinon.de/faq/"
		},
		"company": {
			"content": false,
			"source": "https://anoxinon.de/ueber-uns/",
			"comment": ""
		},
		"passwordReset": {
			"content": {
				"de": "https://anoxinon.de/faq/"
			},
			"source": "",
			"comment": ""
		},
		"inBandRegistration": {
			"content": false,
			"source": "https://anoxinon.de/faq/",
			"comment": "Tested with Kaidan; In-band registration should not be announced by server / Server should not respond with registration form"
		},
		"registrationWebPage": {
			"content": {
				"en": "https://xmpp.anoxinon.me/register/new"
			},
			"comment": ""
		},
		"ratingXmppComplianceTester": {
			"content": 100,
			"source": "https://compliance.conversations.im/server/anoxinon.me/",
			"comment": ""
		},
		"ratingImObservatoryClientToServer": {
			"content": "A",
			"source": "https://xmpp.net/result.php?domain=anoxinon.me&type=client",
			"comment": "Rating is currently wrongly 'T' because of https://github.com/xmpp-observatory/xmppoke/issues/10"
		},
		"ratingImObservatoryServerToServer": {
			"content": "A",
			"source": "https://xmpp.net/result.php?domain=anoxinon.me&type=server",
			"comment": "Rating is currently wrongly 'T' because of https://github.com/xmpp-observatory/xmppoke/issues/10"
		},
		"maximumHttpFileUploadFileSize": {
			"content": 25,
			"source": "https://anoxinon.de/faq/",
			"comment": ""
		},
		"maximumHttpFileUploadTotalSize": {
			"content": 50,
			"source": "https://anoxinon.de/faq/",
			"comment": ""
		},
		"maximumHttpFileUploadStorageTime": {
			"content": 14,
			"source": "https://anoxinon.de/datenschutzerklaerung_xmpp/",
			"comment": ""
		},
		"maximumMessageArchiveManagementStorageTime": {
			"content": 14,
			"source": "https://anoxinon.de/datenschutzerklaerung_xmpp/",
			"comment": ""
		},
		"professionalHosting": {
			"content": true,
			"source": "https://anoxinon.de/faq/",
			"comment": ""
		},
		"freeOfCharge": {
			"content": true,
			"source": "https://anoxinon.de/ueber-uns/",
			"comment": ""
		},
		"legalNotice": {
			"content": {
				"de": "https://anoxinon.de/datenschutzerklaerung_xmpp/"
			},
			"comment": ""
		},
		"serverLocations": {
			"content": [
				"de"
			],
			"source": "https://anoxinon.de/faq/",
			"comment": ""
		},
		"groupChatSupport": {
			"de": {
				"content": [
					"anoxinon@conference.anoxinon.me"
				],
				"source": "https://anoxinon.de/kontakt/",
				"comment": "URI xmpp://anoxinon@conference.anoxinon.me?join on https://anoxinon.de/kontakt/ should be xmpp:anoxinon@conference.anoxinon.me?join"
			}
		},
		"chatSupport": {},
		"emailSupport": {
			"de": {
				"content": [
					"postfach@anoxinon.de"
				],
				"source": "https://anoxinon.de/kontakt/",
				"comment": ""
			}
		},
		"since": {
			"content": "2018-10-04",
			"source": "https://anoxinon.de/blog/anoxinonmessengereroeffnung/",
			"comment": ""
		}
	},
	"conversations.im": {
		"lastCheck": {
			"content": "2022-04-28",
			"comment": ""
		},
		"website": {
			"content": {
				"en": "https://account.conversations.im"
			},
			"comment": ""
		},
		"busFactor": {
			"content": 2,
			"source": "https://account.conversations.im",
			"comment": "It should be clarified on https://account.conversations.im if the service can be operated by each of them independently; If not, the bus factor must be set to 1"
		},
		"company": {
			"content": true,
			"source": "https://account.conversations.im/contact/",
			"comment": ""
		},
		"passwordReset": {
			"content": {
				"en": "https://account.conversations.im/password-recovery/"
			},
			"comment": ""
		},
		"inBandRegistration": {
			"content": true,
			"source": "https://account.conversations.im",
			"comment": "Tested with Kaidan"
		},
		"registrationWebPage": {
			"content": {},
			"source": "https://account.conversations.im",
			"comment": ""
		},
		"ratingXmppComplianceTester": {
			"content": 100,
			"source": "https://compliance.conversations.im/server/conversations.im/",
			"comment": ""
		},
		"ratingImObservatoryClientToServer": {
			"content": "A",
			"source": "https://xmpp.net/result.php?domain=conversations.im&type=client",
			"comment": "Rating is currently wrongly 'T' because of https://github.com/xmpp-observatory/xmppoke/issues/10"
		},
		"ratingImObservatoryServerToServer": {
			"content": "A",
			"source": "https://xmpp.net/result.php?domain=conversations.im&type=server",
			"comment": "Rating is currently wrongly 'T' because of https://github.com/xmpp-observatory/xmppoke/issues/10"
		},
		"maximumHttpFileUploadFileSize": {
			"content": -1,
			"source": "",
			"comment": ""
		},
		"maximumHttpFileUploadTotalSize": {
			"content": -1,
			"source": "",
			"comment": ""
		},
		"maximumHttpFileUploadStorageTime": {
			"content": 90,
			"source": "https://account.conversations.im/privacy/",
			"comment": ""
		},
		"maximumMessageArchiveManagementStorageTime": {
			"content": 90,
			"source": "https://account.conversations.im/privacy/",
			"comment": ""
		},
		"professionalHosting": {
			"content": true,
			"source": "https://account.conversations.im",
			"comment": ""
		},
		"freeOfCharge": {
			"content": true,
			"source": "https://account.conversations.im/privacy/",
			"comment": "Statement about the service being 'free of charge' or 'for free' should be added to https://account.conversations.im"
		},
		"legalNotice": {
			"content": {
				"en": "https://account.conversations.im/privacy/"
			},
			"comment": ""
		},
		"serverLocations": {
			"content": [
				"de"
			],
			"source": "https://account.conversations.im/privacy/",
			"comment": ""
		},
		"groupChatSupport": {
			"en": {
				"content": [
					"conversations@conference.siacs.eu"
				],
				"source": "https://conversations.im",
				"comment": ""
			}
		},
		"chatSupport": {},
		"emailSupport": {
			"en": {
				"content": [
					"support@conversations.im"
				],
				"source": "https://account.conversations.im/contact/",
				"comment": ""
			}
		},
		"since": {
			"content": "2014-12-31",
			"source": "",
			"comment": "Precise date should be added to website; Current date has only valid year from copyright notice"
		}
	},
	"dismail.de": {
		"lastCheck": {
			"content": "2021-07-23",
			"comment": ""
		},
		"website": {
			"content": {
				"en": "https://dismail.de"
			},
			"comment": ""
		},
		"busFactor": {
			"content": 1,
			"source": "https://dismail.de/stillalive.html",
			"comment": ""
		},
		"company": {
			"content": false,
			"source": "",
			"comment": ""
		},
		"passwordReset": {
			"content": {},
			"source": "https://dismail.de/faq.html",
			"comment": ""
		},
		"inBandRegistration": {
			"content": false,
			"source": "https://dismail.de/register.html",
			"comment": ""
		},
		"registrationWebPage": {
			"content": {},
			"source": "https://dismail.de/register.html",
			"comment": ""
		},
		"ratingXmppComplianceTester": {
			"content": 100,
			"source": "https://compliance.conversations.im/server/dismail.de/",
			"comment": ""
		},
		"ratingImObservatoryClientToServer": {
			"content": "A",
			"source": "https://xmpp.net/result.php?domain=dismail.de&type=client",
			"comment": ""
		},
		"ratingImObservatoryServerToServer": {
			"content": "A",
			"source": "https://xmpp.net/result.php?domain=dismail.de&type=server",
			"comment": ""
		},
		"maximumHttpFileUploadFileSize": {
			"content": 100,
			"source": "https://dismail.de/info.html",
			"comment": ""
		},
		"maximumHttpFileUploadTotalSize": {
			"content": -1,
			"source": "",
			"comment": ""
		},
		"maximumHttpFileUploadStorageTime": {
			"content": 31,
			"source": "https://dismail.de/info.html",
			"comment": ""
		},
		"maximumMessageArchiveManagementStorageTime": {
			"content": 7,
			"source": "https://dismail.de/info.html",
			"comment": ""
		},
		"professionalHosting": {
			"content": true,
			"source": "https://dismail.de/info.html",
			"comment": ""
		},
		"freeOfCharge": {
			"content": true,
			"source": "https://dismail.de/faq.html",
			"comment": ""
		},
		"legalNotice": {
			"content": {
				"de": "https://dismail.de/impressum.html"
			},
			"comment": ""
		},
		"serverLocations": {
			"content": [
				"de"
			],
			"source": "https://dismail.de",
			"comment": ""
		},
		"groupChatSupport": {
			"en": {
				"content": [
					"support@rooms.dismail.de"
				],
				"source": "https://dismail.de/faq.html",
				"comment": ""
			}
		},
		"chatSupport": {
			"en": {
				"content": [
					"support@dismail.de"
				],
				"source": "https://dismail.de/contact.html",
				"comment": ""
			}
		},
		"emailSupport": {
			"en": {
				"content": [
					"support@dismail.de"
				],
				"source": "https://dismail.de/contact.html",
				"comment": ""
			}
		},
		"since": {
			"content": "2015-10-29",
			"source": "https://dismail.de/donate.html",
			"comment": ""
		}
	},
	"disroot.org": {
		"lastCheck": {
			"content": "2022-04-09",
			"comment": ""
		},
		"website": {
			"content": {
				"de": "https://disroot.org/de/services/xmpp",
				"en": "https://disroot.org/en/services/xmpp",
				"es": "https://disroot.org/es/services/xmpp",
				"fr": "https://disroot.org/fr/services/xmpp",
				"it": "https://disroot.org/it/services/xmpp"
			},
			"comment": "it: not everything translated; ru: nothing translated, thus not included"
		},
		"busFactor": {
			"content": -1,
			"source": "",
			"comment": ""
		},
		"company": {
			"content": false,
			"source": "https://disroot.org/en/about",
			"comment": ""
		},
		"passwordReset": {
			"content": {
				"en": "https://user.disroot.org/pwm/public/forgottenpassword/"
			},
			"comment": ""
		},
		"inBandRegistration": {
			"content": false,
			"source": "",
			"comment": "Tested with Kaidan; Statement about disabled in-band registration should be added to website"
		},
		"registrationWebPage": {
			"content": {},
			"comment": "https://user.disroot.org/pwm/public/newuser/ is used for registration but not always open (closed on weekends)"
		},
		"ratingXmppComplianceTester": {
			"content": 100,
			"source": "https://compliance.conversations.im/server/disroot.org/",
			"comment": ""
		},
		"ratingImObservatoryClientToServer": {
			"content": "A",
			"source": "https://xmpp.net/result.php?domain=disroot.org&type=client",
			"comment": ""
		},
		"ratingImObservatoryServerToServer": {
			"content": "A",
			"source": "https://xmpp.net/result.php?domain=disroot.org&type=server",
			"comment": ""
		},
		"maximumHttpFileUploadFileSize": {
			"content": 10,
			"source": "https://disroot.org/en/services/xmpp",
			"comment": ""
		},
		"maximumHttpFileUploadTotalSize": {
			"content": -1,
			"source": "",
			"comment": ""
		},
		"maximumHttpFileUploadStorageTime": {
			"content": 90,
			"source": "https://disroot.org/en/privacy_policy",
			"comment": "3 months"
		},
		"maximumMessageArchiveManagementStorageTime": {
			"content": -1,
			"source": "",
			"comment": "https://disroot.org/en/services/xmpp states 6 month but https://disroot.org/en/privacy_policy 1 month"
		},
		"professionalHosting": {
			"content": true,
			"source": "https://disroot.org/en/about",
			"comment": "Statement about hosting company (name / link) should be added to https://disroot.org/en/about"
		},
		"freeOfCharge": {
			"content": true,
			"source": "https://disroot.org/en",
			"comment": ""
		},
		"legalNotice": {
			"content": {
				"en": "https://disroot.org/en/tos"
			},
			"comment": "other language versions available but only title translated"
		},
		"serverLocations": {
			"content": [
				"nl"
			],
			"source": "https://disroot.org/en/tos",
			"comment": ""
		},
		"groupChatSupport": {
			"de": {
				"content": [
					"disroot@chat.disroot.org"
				],
				"source": "https://disroot.org/de/contact",
				"comment": ""
			},
			"en": {
				"content": [
					"disroot@chat.disroot.org"
				],
				"source": "https://disroot.org/en/contact",
				"comment": ""
			},
			"es": {
				"content": [
					"disroot@chat.disroot.org"
				],
				"source": "https://disroot.org/es/contact",
				"comment": ""
			},
			"fr": {
				"content": [
					"disroot@chat.disroot.org"
				],
				"source": "https://disroot.org/fr/contact",
				"comment": ""
			},
			"it": {
				"content": [
					"disroot@chat.disroot.org"
				],
				"source": "https://disroot.org/it/contact",
				"comment": ""
			},
			"ru": {
				"content": [
					"disroot@chat.disroot.org"
				],
				"source": "https://disroot.org/ru/contact",
				"comment": ""
			}
		},
		"chatSupport": {},
		"emailSupport": {
			"de": {
				"content": [
					"support@disroot.org"
				],
				"source": "https://disroot.org/de/contact",
				"comment": ""
			},
			"en": {
				"content": [
					"support@disroot.org"
				],
				"source": "https://disroot.org/en/contact",
				"comment": ""
			},
			"es": {
				"content": [
					"support@disroot.org"
				],
				"source": "https://disroot.org/es/contact",
				"comment": ""
			},
			"fr": {
				"content": [
					"support@disroot.org"
				],
				"source": "https://disroot.org/fr/contact",
				"comment": ""
			},
			"it": {
				"content": [
					"support@disroot.org"
				],
				"source": "https://disroot.org/it/contact",
				"comment": ""
			},
			"ru": {
				"content": [
					"support@disroot.org"
				],
				"source": "https://disroot.org/ru/contact",
				"comment": ""
			}
		},
		"since": {
			"content": "2015-04-08",
			"source": "https://disroot.org/en/blog/disroot-is-live",
			"comment": ""
		}
	},
	"draugr.de": {
		"lastCheck": {
			"content": "2022-04-12",
			"comment": ""
		},
		"website": {
			"content": {
				"de": "https://www.draugr.de"
			},
			"comment": ""
		},
		"busFactor": {
			"content": 1,
			"source": "https://www.draugr.de/impressum/",
			"comment": ""
		},
		"company": {
			"content": false,
			"source": "https://www.draugr.de/impressum/",
			"comment": ""
		},
		"passwordReset": {
			"content": {},
			"source": "https://www.draugr.de/faq/",
			"comment": ""
		},
		"inBandRegistration": {
			"content": true,
			"source": "https://www.draugr.de",
			"comment": "Tested with Kaidan"
		},
		"registrationWebPage": {
			"content": {},
			"comment": ""
		},
		"ratingXmppComplianceTester": {
			"content": 100,
			"source": "https://compliance.conversations.im/server/draugr.de/",
			"comment": ""
		},
		"ratingImObservatoryClientToServer": {
			"content": "A",
			"source": "https://xmpp.net/result.php?domain=draugr.de&type=client",
			"comment": "Rating is currently wrongly 'T' because of https://github.com/xmpp-observatory/xmppoke/issues/10"
		},
		"ratingImObservatoryServerToServer": {
			"content": "A",
			"source": "https://xmpp.net/result.php?domain=draugr.de&type=server",
			"comment": "Rating is currently wrongly 'T' because of https://github.com/xmpp-observatory/xmppoke/issues/10"
		},
		"maximumHttpFileUploadFileSize": {
			"content": -1,
			"source": "",
			"comment": ""
		},
		"maximumHttpFileUploadTotalSize": {
			"content": -1,
			"source": "",
			"comment": ""
		},
		"maximumHttpFileUploadStorageTime": {
			"content": 31,
			"source": "https://www.draugr.de/datenschutz/",
			"comment": ""
		},
		"maximumMessageArchiveManagementStorageTime": {
			"content": 21,
			"source": "https://www.draugr.de/datenschutz/",
			"comment": ""
		},
		"professionalHosting": {
			"content": true,
			"source": "https://www.draugr.de/sicherheit/",
			"comment": "Statement about hosting company (name / link) and backup location should be added to https://www.draugr.de/sicherheit/"
		},
		"freeOfCharge": {
			"content": true,
			"source": "https://www.draugr.de/nutzungsbedingungen/",
			"comment": ""
		},
		"legalNotice": {
			"content": {
				"de": "https://www.draugr.de/nutzungsbedingungen/"
			},
			"comment": ""
		},
		"serverLocations": {
			"content": [],
			"source": "",
			"comment": ""
		},
		"groupChatSupport": {},
		"chatSupport": {},
		"emailSupport": {
			"de": {
				"content": [],
				"source": "https://www.draugr.de/kontakt/",
				"comment": "info@draugr.de: Admin does not respond"
			}
		},
		"since": {
			"content": "2005-11-21",
			"source": "https://www.draugr.de/faq/",
			"comment": ""
		}
	},
	"hookipa.net": {
		"lastCheck": {
			"content": "2021-07-05",
			"comment": ""
		},
		"website": {
			"content": {
				"de": "https://hookipa.net",
				"en": "https://hookipa.net/en/front-page/"
			},
			"comment": ""
		},
		"busFactor": {
			"content": 1,
			"source": "https://hookipa.net/en/documentation/",
			"comment": ""
		},
		"company": {
			"content": false,
			"source": "https://hookipa.net/impressum/",
			"comment": ""
		},
		"passwordReset": {
			"content": {},
			"source": "",
			"comment": ""
		},
		"inBandRegistration": {
			"content": true,
			"source": "Tested with Kaidan",
			"comment": ""
		},
		"registrationWebPage": {
			"content": {
				"en": "https://hookipa.net/register/new"
			},
			"comment": ""
		},
		"ratingXmppComplianceTester": {
			"content": 100,
			"source": "https://compliance.conversations.im/server/hookipa.net/",
			"comment": ""
		},
		"ratingImObservatoryClientToServer": {
			"content": "A",
			"source": "https://xmpp.net/result.php?domain=hookipa.net&type=client",
			"comment": ""
		},
		"ratingImObservatoryServerToServer": {
			"content": "A",
			"source": "https://xmpp.net/result.php?domain=hookipa.net&type=server",
			"comment": ""
		},
		"maximumHttpFileUploadFileSize": {
			"content": 100,
			"source": "https://hookipa.net/en/documentation/",
			"comment": ""
		},
		"maximumHttpFileUploadTotalSize": {
			"content": 0,
			"source": "https://hookipa.net/en/documentation/",
			"comment": ""
		},
		"maximumHttpFileUploadStorageTime": {
			"content": 30,
			"source": "https://hookipa.net/en/documentation/",
			"comment": ""
		},
		"maximumMessageArchiveManagementStorageTime": {
			"content": 365,
			"source": "https://hookipa.net/en/documentation/",
			"comment": ""
		},
		"professionalHosting": {
			"content": true,
			"source": "https://hookipa.net/en/documentation/",
			"comment": ""
		},
		"freeOfCharge": {
			"content": true,
			"source": "https://hookipa.net/en/privacy-policy/",
			"comment": ""
		},
		"legalNotice": {
			"content": {
				"de": "https://hookipa.net/impressum/"
			},
			"comment": ""
		},
		"serverLocations": {
			"content": [
				"de"
			],
			"source": "https://hookipa.net/en/privacy-policy/",
			"comment": ""
		},
		"groupChatSupport": {
			"de": {
				"content": [
					"support@chat.hookipa.net"
				],
				"source": "https://hookipa.net",
				"comment": ""
			},
			"en": {
				"content": [
					"support@chat.hookipa.net"
				],
				"source": "https://hookipa.net/en/front-page/",
				"comment": ""
			}
		},
		"chatSupport": {},
		"emailSupport": {},
		"since": {
			"content": "2008-05-28",
			"source": "https://hookipa.net/en/documentation/server-history/",
			"comment": ""
		}
	},
	"jabber-germany.de": {
		"lastCheck": {
			"content": "2021-12-22",
			"comment": ""
		},
		"website": {
			"content": {
				"de": "https://jabber-germany.de/index-de.html",
				"en": "https://jabber-germany.de"
			},
			"comment": ""
		},
		"busFactor": {
			"content": 1,
			"source": "https://jabber-germany.de",
			"comment": ""
		},
		"company": {
			"content": false,
			"source": "https://jabber-germany.de/impressum.html",
			"comment": ""
		},
		"passwordReset": {
			"content": {
				"de": "https://jabber-germany.de/index-de.html",
				"en": "https://jabber-germany.de"
			},
			"comment": ""
		},
		"inBandRegistration": {
			"content": false,
			"source": "https://jabber-germany.de",
			"comment": "Tested with Kaidan"
		},
		"registrationWebPage": {
			"content": {
				"en": "https://jabber-germany.de/register.html"
			},
			"comment": ""
		},
		"ratingXmppComplianceTester": {
			"content": 100,
			"source": "https://compliance.conversations.im/server/jabber-germany.de/",
			"comment": ""
		},
		"ratingImObservatoryClientToServer": {
			"content": "A",
			"source": "https://xmpp.net/result.php?domain=jabber-germany.de&type=client",
			"comment": "Rating is currently wrongly 'T' because of https://github.com/xmpp-observatory/xmppoke/issues/10"
		},
		"ratingImObservatoryServerToServer": {
			"content": "A",
			"source": "https://xmpp.net/result.php?domain=jabber-germany.de&type=server",
			"comment": "Rating is currently wrongly 'T' because of https://github.com/xmpp-observatory/xmppoke/issues/10"
		},
		"maximumHttpFileUploadFileSize": {
			"content": 20,
			"source": "https://jabber-germany.de",
			"comment": ""
		},
		"maximumHttpFileUploadTotalSize": {
			"content": 100,
			"source": "https://jabber-germany.de",
			"comment": ""
		},
		"maximumHttpFileUploadStorageTime": {
			"content": 14,
			"source": "https://jabber-germany.de",
			"comment": ""
		},
		"maximumMessageArchiveManagementStorageTime": {
			"content": 14,
			"source": "https://jabber-germany.de",
			"comment": ""
		},
		"professionalHosting": {
			"content": true,
			"source": "https://jabber-germany.de",
			"comment": ""
		},
		"freeOfCharge": {
			"content": true,
			"source": "https://jabber-germany.de",
			"comment": ""
		},
		"legalNotice": {
			"content": {
				"en": "https://jabber-germany.de"
			},
			"comment": ""
		},
		"serverLocations": {
			"content": [
				"de"
			],
			"source": "https://jabber-germany.de",
			"comment": ""
		},
		"groupChatSupport": {},
		"chatSupport": {
			"de": {
				"content": [
					"admin@jabber-germany.de"
				],
				"source": "https://jabber-germany.de/index-de.html",
				"comment": ""
			},
			"en": {
				"content": [
					"admin@jabber-germany.de"
				],
				"source": "https://jabber-germany.de",
				"comment": ""
			}
		},
		"emailSupport": {
			"de": {
				"content": [
					"admin@jabber-germany.de"
				],
				"source": "https://jabber-germany.de/index-de.html",
				"comment": ""
			},
			"en": {
				"content": [
					"admin@jabber-germany.de"
				],
				"source": "https://jabber-germany.de",
				"comment": ""
			}
		},
		"since": {
			"content": "2017-06-20",
			"source": "https://jabber-germany.de",
			"comment": ""
		}
	},
	"jabber.at": {
		"lastCheck": {
			"content": "2022-03-20",
			"comment": ""
		},
		"website": {
			"content": {
				"de": "https://jabber.at/api/set-lang/?lang=de&next=/",
				"en": "https://jabber.at"
			},
			"comment": ""
		},
		"busFactor": {
			"content": 2,
			"source": "",
			"comment": "It should be clarified on https://jabber.at/p/about/ and corresponding language versions if the service can be operated by each of them independently; If not, the bus factor must be set to 1"
		},
		"company": {
			"content": false,
			"source": "https://jabber.at/p/about/",
			"comment": ""
		},
		"passwordReset": {
			"content": {
				"de": "https://jabber.at/api/set-lang/?lang=de&next=/account/password/reset/",
				"en": "https://jabber.at/account/password/reset/"
			},
			"comment": ""
		},
		"inBandRegistration": {
			"content": false,
			"source": "https://jabber.at/p/faq/",
			"comment": "Tested with Kaidan"
		},
		"registrationWebPage": {
			"content": {},
			"source": "https://jabber.at/account/register/",
			"comment": ""
		},
		"ratingXmppComplianceTester": {
			"content": 90,
			"source": "https://compliance.conversations.im/server/jabber.at/",
			"comment": ""
		},
		"ratingImObservatoryClientToServer": {
			"content": "A",
			"source": "https://xmpp.net/result.php?domain=jabber.at&type=client",
			"comment": "Rating is currently wrongly 'T' because of https://github.com/xmpp-observatory/xmppoke/issues/10"
		},
		"ratingImObservatoryServerToServer": {
			"content": "A",
			"source": "https://xmpp.net/result.php?domain=jabber.at&type=server",
			"comment": "Rating is currently wrongly 'T' because of https://github.com/xmpp-observatory/xmppoke/issues/10"
		},
		"maximumHttpFileUploadFileSize": {
			"content": -1,
			"source": "",
			"comment": "Statement must be added to https://jabber.at/p/faq/"
		},
		"maximumHttpFileUploadTotalSize": {
			"content": -1,
			"source": "",
			"comment": "Statement must be added to https://jabber.at/p/faq/"
		},
		"maximumHttpFileUploadStorageTime": {
			"content": 31,
			"source": "https://jabber.at/p/privacy/",
			"comment": ""
		},
		"maximumMessageArchiveManagementStorageTime": {
			"content": 21,
			"source": "https://jabber.at/p/privacy/",
			"comment": ""
		},
		"professionalHosting": {
			"content": false,
			"source": "",
			"comment": "Statement about hosting company (name / link) and backup details (location / frequency) must be added to https://jabber.at/p/privacy/"
		},
		"freeOfCharge": {
			"content": true,
			"source": "https://jabber.at/p/about/",
			"comment": "Statement about the service being 'free of charge' or 'for free' should be added to https://jabber.at/p/about/"
		},
		"legalNotice": {
			"content": {
				"de": "https://jabber.at/api/set-lang/?lang=de&next=/p/privacy/",
				"en": "https://jabber.at/p/privacy/"
			},
			"comment": ""
		},
		"serverLocations": {
			"content": [],
			"source": "",
			"comment": "Statement about location/s of the server/s (at least country) must be added to https://jabber.at/p/privacy/"
		},
		"groupChatSupport": {
			"de": {
				"content": [
					"chat@conference.jabber.at"
				],
				"source": "https://jabber.at/api/set-lang/?lang=de&next=/contact/",
				"comment": "URI 'xmpp:chat@conference.jabber.at' should be 'xmpp:chat@conference.jabber.at?join'"
			},
			"en": {
				"content": [
					"chat@conference.jabber.at"
				],
				"source": "https://jabber.at/contact/",
				"comment": "URI 'xmpp:chat@conference.jabber.at' should be 'xmpp:chat@conference.jabber.at?join'"
			}
		},
		"chatSupport": {},
		"emailSupport": {},
		"since": {
			"content": "2010-04-26",
			"source": "https://jabber.at/b/welcome-to-jabber-at/",
			"comment": ""
		}
	},
	"jabber.cat": {
		"lastCheck": {
			"content": "2021-12-30",
			"comment": ""
		},
		"website": {
			"content": {
				"de": "https://jabber.cat"
			},
			"comment": ""
		},
		"busFactor": {
			"content": 1,
			"source": "https://jabber.cat/dse.html",
			"comment": ""
		},
		"company": {
			"content": false,
			"source": "https://jabber.cat/impressum.html",
			"comment": ""
		},
		"passwordReset": {
			"content": {},
			"source": "https://jabber.cat/tou.html",
			"comment": ""
		},
		"inBandRegistration": {
			"content": false,
			"source": "https://jabber.cat",
			"comment": "Tested with Kaidan"
		},
		"registrationWebPage": {
			"content": {},
			"source": "https://jabber.cat",
			"comment": ""
		},
		"ratingXmppComplianceTester": {
			"content": 100,
			"source": "https://compliance.conversations.im/server/jabber.cat/",
			"comment": ""
		},
		"ratingImObservatoryClientToServer": {
			"content": "A",
			"source": "https://xmpp.net/result.php?domain=jabber.cat&type=client",
			"comment": ""
		},
		"ratingImObservatoryServerToServer": {
			"content": "A",
			"source": "https://xmpp.net/result.php?domain=jabber.cat&type=server",
			"comment": ""
		},
		"maximumHttpFileUploadFileSize": {
			"content": 10,
			"source": "https://jabber.cat/#collapse4",
			"comment": ""
		},
		"maximumHttpFileUploadTotalSize": {
			"content": 50,
			"source": "https://jabber.cat/#collapse4",
			"comment": ""
		},
		"maximumHttpFileUploadStorageTime": {
			"content": 14,
			"source": "https://jabber.cat/#collapse4",
			"comment": ""
		},
		"maximumMessageArchiveManagementStorageTime": {
			"content": 14,
			"source": "https://jabber.cat/#collapse3",
			"comment": ""
		},
		"professionalHosting": {
			"content": false,
			"source": "",
			"comment": "Statement about hosting company (name / link) and backup details (location / frequency) must be added to https://jabber.cat"
		},
		"freeOfCharge": {
			"content": true,
			"source": "https://jabber.cat/tou.html",
			"comment": ""
		},
		"legalNotice": {
			"content": {
				"de": "https://jabber.cat/dse.html"
			},
			"comment": ""
		},
		"serverLocations": {
			"content": [
				"de"
			],
			"source": "https://jabber.cat/dse.html",
			"comment": ""
		},
		"groupChatSupport": {},
		"chatSupport": {
			"de": {
				"content": [
					"contact@jabber.cat"
				],
				"source": "https://jabber.cat",
				"comment": ""
			}
		},
		"emailSupport": {
			"de": {
				"content": [
					"contact@jabber.cat"
				],
				"source": "https://jabber.cat",
				"comment": ""
			}
		},
		"since": {
			"content": "2016-10-01",
			"source": "https://jabber.cat",
			"comment": ""
		}
	},
	"jabber.de": {
		"lastCheck": {
			"content": "2021-11-14",
			"comment": ""
		},
		"website": {
			"content": {
				"de": "https://www.jabber.de"
			},
			"comment": ""
		},
		"busFactor": {
			"content": -1,
			"source": "",
			"comment": ""
		},
		"company": {
			"content": false,
			"source": "https://www.jabber.de/impressum/",
			"comment": ""
		},
		"passwordReset": {
			"content": {
				"de": "https://www.jabber.de/support/"
			},
			"comment": ""
		},
		"inBandRegistration": {
			"content": true,
			"source": "Tested with Kaidan",
			"comment": ""
		},
		"registrationWebPage": {
			"content": {
				"de": "https://www.jabber.de/anmeldung/"
			},
			"comment": ""
		},
		"ratingXmppComplianceTester": {
			"content": 100,
			"source": "https://compliance.conversations.im/server/jabber.de/",
			"comment": ""
		},
		"ratingImObservatoryClientToServer": {
			"content": "A",
			"source": "https://xmpp.net/result.php?domain=jabber.de&type=client",
			"comment": ""
		},
		"ratingImObservatoryServerToServer": {
			"content": "A",
			"source": "https://xmpp.net/result.php?domain=jabber.de&type=server",
			"comment": ""
		},
		"maximumHttpFileUploadFileSize": {
			"content": 10,
			"source": "https://www.jabber.de/server-info/",
			"comment": "Prosody's internal HTTP server cannot handle more than 10 MB; Admin must set up external HTTP server"
		},
		"maximumHttpFileUploadTotalSize": {
			"content": 2000,
			"source": "https://www.jabber.de/server-info/",
			"comment": ""
		},
		"maximumHttpFileUploadStorageTime": {
			"content": 7,
			"source": "https://www.jabber.de/server-info/",
			"comment": ""
		},
		"maximumMessageArchiveManagementStorageTime": {
			"content": 14,
			"source": "https://www.jabber.de/server-info/",
			"comment": ""
		},
		"professionalHosting": {
			"content": true,
			"source": "https://www.jabber.de/server-info/",
			"comment": ""
		},
		"freeOfCharge": {
			"content": true,
			"source": "https://www.jabber.de/server-info/",
			"comment": ""
		},
		"legalNotice": {
			"content": {
				"de": "https://www.jabber.de/impressum/"
			},
			"comment": ""
		},
		"serverLocations": {
			"content": [
				"de"
			],
			"source": "https://www.jabber.de/server-info/",
			"comment": ""
		},
		"groupChatSupport": {
			"de": {
				"content": [
					"support@conference.jabber.de"
				],
				"source": "https://www.jabber.de/support/",
				"comment": ""
			}
		},
		"chatSupport": {},
		"emailSupport": {
			"de": {
				"content": [
					"webmaster@jabber.de"
				],
				"source": "https://www.jabber.de/impressum/",
				"comment": ""
			}
		},
		"since": {
			"content": "2012-02-16",
			"source": "https://www.jabber.de/hallo-welt/",
			"comment": ""
		}
	},
	"jabber.fr": {
		"lastCheck": {
			"content": "2022-02-17",
			"comment": ""
		},
		"website": {
			"content": {
				"fr": "https://jabberfr.org"
			},
			"comment": "jabber.fr is used for public registration, jabberfr.org for members and remaining structure"
		},
		"busFactor": {
			"content": -1,
			"source": "",
			"comment": ""
		},
		"company": {
			"content": false,
			"source": "https://wiki.jabberfr.org/CGU",
			"comment": ""
		},
		"passwordReset": {
			"content": {},
			"comment": ""
		},
		"inBandRegistration": {
			"content": true,
			"source": "",
			"comment": "Tested with Kaidan"
		},
		"registrationWebPage": {
			"content": {},
			"comment": ""
		},
		"ratingXmppComplianceTester": {
			"content": 100,
			"source": "https://compliance.conversations.im/server/jabber.fr/",
			"comment": ""
		},
		"ratingImObservatoryClientToServer": {
			"content": "A",
			"source": "https://xmpp.net/result.php?domain=jabber.fr&type=client",
			"comment": ""
		},
		"ratingImObservatoryServerToServer": {
			"content": "A",
			"source": "https://xmpp.net/result.php?domain=jabber.fr&type=server",
			"comment": ""
		},
		"maximumHttpFileUploadFileSize": {
			"content": 10,
			"source": "https://wiki.jabberfr.org/JabberFR#Quelles_sont_les_caract.C3.A9ristiques_du_service_pour_les_utilisateurs_.3F",
			"comment": ""
		},
		"maximumHttpFileUploadTotalSize": {
			"content": 0,
			"source": "https://wiki.jabberfr.org/JabberFR#Quelles_sont_les_caract.C3.A9ristiques_du_service_pour_les_utilisateurs_.3F",
			"comment": ""
		},
		"maximumHttpFileUploadStorageTime": {
			"content": 0,
			"source": "https://wiki.jabberfr.org/JabberFR#Quelles_sont_les_caract.C3.A9ristiques_du_service_pour_les_utilisateurs_.3F",
			"comment": ""
		},
		"maximumMessageArchiveManagementStorageTime": {
			"content": 14,
			"source": "https://wiki.jabberfr.org/JabberFR#Quelles_sont_les_caract.C3.A9ristiques_du_service_pour_les_utilisateurs_.3F",
			"comment": ""
		},
		"professionalHosting": {
			"content": true,
			"source": "https://wiki.jabberfr.org/JabberFR#Quelles_sont_les_caract.C3.A9ristiques_du_service_pour_les_utilisateurs_.3F",
			"comment": ""
		},
		"freeOfCharge": {
			"content": true,
			"source": "https://wiki.jabberfr.org/CGU",
			"comment": ""
		},
		"legalNotice": {
			"content": {
				"fr": "https://wiki.jabberfr.org/CGU"
			},
			"comment": ""
		},
		"serverLocations": {
			"content": [
				"fr"
			],
			"source": "https://wiki.jabberfr.org/JabberFR#Quelles_sont_les_caract.C3.A9ristiques_du_service_pour_les_utilisateurs_.3F",
			"comment": ""
		},
		"groupChatSupport": {
			"fr": {
				"content": [
					"jabberfr@chat.jabberfr.org"
				],
				"comment": "",
				"source": "https://jabberfr.org/contact/"
			}
		},
		"chatSupport": {
			"fr": {
				"content": [
					"linkmauve@linkmauve.fr",
					"mathieui@mathieui.net"
				],
				"comment": "",
				"source": "https://jabberfr.org/contact/"
			}
		},
		"emailSupport": {
			"fr": {
				"content": [
					"admins@jabberfr.org"
				],
				"comment": "",
				"source": "https://jabberfr.org/contact/"
			}
		},
		"since": {
			"content": "2003-10-08",
			"source": "https://web.archive.org/web/20031008084307/http://jabberfr.org/",
			"comment": ""
		}
	},
	"jabber.hot-chilli.net": {
		"lastCheck": {
			"content": "2021-04-03",
			"comment": ""
		},
		"website": {
			"content": {
				"de": "https://jabber.hot-chilli.net/de/",
				"en": "https://jabber.hot-chilli.net"
			},
			"comment": ""
		},
		"busFactor": {
			"content": -1,
			"source": "",
			"comment": ""
		},
		"company": {
			"content": true,
			"source": "https://jabber.hot-chilli.net/legal/",
			"comment": ""
		},
		"passwordReset": {
			"content": {
				"en": "https://jabber.hot-chilli.net/forms/resetpw/"
			},
			"comment": ""
		},
		"inBandRegistration": {
			"content": false,
			"source": "",
			"comment": "Tested with Kaidan"
		},
		"registrationWebPage": {
			"content": {
				"en": "https://jabber.hot-chilli.net/forms/create/"
			},
			"comment": ""
		},
		"ratingXmppComplianceTester": {
			"content": 100,
			"source": "https://compliance.conversations.im/server/jabber.hot-chilli.net/",
			"comment": ""
		},
		"ratingImObservatoryClientToServer": {
			"content": "A",
			"source": "https://xmpp.net/result.php?domain=jabber.hot-chilli.net&type=client",
			"comment": ""
		},
		"ratingImObservatoryServerToServer": {
			"content": "A",
			"source": "https://xmpp.net/result.php?domain=jabber.hot-chilli.net&type=server",
			"comment": ""
		},
		"maximumHttpFileUploadFileSize": {
			"content": 512,
			"source": "https://jabber.hot-chilli.net/server-specifications/#Limits",
			"comment": ""
		},
		"maximumHttpFileUploadTotalSize": {
			"content": 1000,
			"source": "https://jabber.hot-chilli.net/server-specifications/#Limits",
			"comment": ""
		},
		"maximumHttpFileUploadStorageTime": {
			"content": 31,
			"source": "https://jabber.hot-chilli.net/server-specifications/#Limits",
			"comment": ""
		},
		"maximumMessageArchiveManagementStorageTime": {
			"content": 31,
			"source": "https://jabber.hot-chilli.net/server-specifications/#Limits",
			"comment": ""
		},
		"professionalHosting": {
			"content": true,
			"source": "https://jabber.hot-chilli.net/server-specifications/#Server_hardware_and_server_location",
			"comment": ""
		},
		"freeOfCharge": {
			"content": true,
			"source": "https://jabber.hot-chilli.net",
			"comment": ""
		},
		"legalNotice": {
			"content": {
				"de": "https://jabber.hot-chilli.net/de/impressum/",
				"en": "https://jabber.hot-chilli.net/legal/"
			},
			"comment": ""
		},
		"serverLocations": {
			"content": [
				"de"
			],
			"source": "https://jabber.hot-chilli.net/server-specifications/#Server_hardware_and_server_location",
			"comment": ""
		},
		"groupChatSupport": {
			"de": {
				"content": [
					"support@conference.jabber.hot-chilli.net"
				],
				"source": "https://jabber.hot-chilli.net/de/",
				"comment": ""
			},
			"en": {
				"content": [
					"support@conference.jabber.hot-chilli.net"
				],
				"source": "https://jabber.hot-chilli.net",
				"comment": ""
			}
		},
		"chatSupport": {
			"de": {
				"content": [
					"roi@jabber.hot-chilli.net",
					"beorn@jabber.hot-chilli.net"
				],
				"source": "https://jabber.hot-chilli.net/de/",
				"comment": ""
			},
			"en": {
				"content": [
					"roi@jabber.hot-chilli.net",
					"beorn@jabber.hot-chilli.net"
				],
				"source": "https://jabber.hot-chilli.net",
				"comment": ""
			}
		},
		"emailSupport": {},
		"since": {
			"content": "2005-03-19",
			"source": "https://jabber.hot-chilli.net/2005/03/19/jabber-server-up-and-running/",
			"comment": ""
		}
	},
	"jabbers.one": {
		"lastCheck": {
			"content": "2021-10-08",
			"comment": ""
		},
		"website": {
			"content": {
				"de": "https://jabbers.one/de/",
				"en": "https://jabbers.one/en/"
			},
			"comment": ""
		},
		"busFactor": {
			"content": -1,
			"source": "",
			"comment": ""
		},
		"company": {
			"content": false,
			"source": "https://jabbers.one/en/site_notice.php",
			"comment": ""
		},
		"passwordReset": {
			"content": {},
			"source": "https://jabbers.one/en/faq.php",
			"comment": ""
		},
		"inBandRegistration": {
			"content": true,
			"source": "Tested with Kaidan",
			"comment": ""
		},
		"registrationWebPage": {
			"content": {
				"de": "https://jabbers.one/de/registrieren.php",
				"en": "https://jabbers.one/en/register.php"
			},
			"comment": ""
		},
		"ratingXmppComplianceTester": {
			"content": 100,
			"source": "https://compliance.conversations.im/server/jabbers.one/",
			"comment": ""
		},
		"ratingImObservatoryClientToServer": {
			"content": "A",
			"source": "https://xmpp.net/result.php?domain=jabbers.one&type=client",
			"comment": ""
		},
		"ratingImObservatoryServerToServer": {
			"content": "A",
			"source": "https://xmpp.net/result.php?domain=jabbers.one&type=server",
			"comment": ""
		},
		"maximumHttpFileUploadFileSize": {
			"content": 50,
			"source": "https://jabbers.one/en/",
			"comment": ""
		},
		"maximumHttpFileUploadTotalSize": {
			"content": 200,
			"source": "https://jabbers.one/en/",
			"comment": ""
		},
		"maximumHttpFileUploadStorageTime": {
			"content": 10,
			"source": "https://jabbers.one/en/",
			"comment": ""
		},
		"maximumMessageArchiveManagementStorageTime": {
			"content": 30,
			"source": "https://jabbers.one/en/",
			"comment": ""
		},
		"professionalHosting": {
			"content": true,
			"source": "https://jabbers.one/en/faq.php",
			"comment": ""
		},
		"freeOfCharge": {
			"content": true,
			"source": "https://jabbers.one/en/faq.php",
			"comment": ""
		},
		"legalNotice": {
			"content": {
				"de": "https://www.jabbers.one/de/impressum.php",
				"en": "https://www.jabbers.one/en/site_notice.php"
			},
			"comment": ""
		},
		"serverLocations": {
			"content": [
				"de"
			],
			"source": "https://jabbers.one/en/",
			"comment": ""
		},
		"groupChatSupport": {
			"de": {
				"content": [
					"support@conference.jabbers.one"
				],
				"source": "https://jabbers.one/de/",
				"comment": ""
			},
			"en": {
				"content": [
					"support@conference.jabbers.one"
				],
				"source": "https://jabbers.one/en/",
				"comment": ""
			}
		},
		"chatSupport": {},
		"emailSupport": {
			"de": {
				"content": [
					"info@jabbers.one"
				],
				"source": "https://jabbers.one/de/impressum.php",
				"comment": ""
			},
			"en": {
				"content": [
					"info@jabbers.one"
				],
				"source": "https://www.jabbers.one/en/site_notice.php",
				"comment": ""
			}
		},
		"since": {
			"content": "2014-04-28",
			"source": "https://jabbers.one/en/news.php",
			"comment": ""
		}
	},
	"jix.im": {
		"lastCheck": {
			"content": "2022-05-06",
			"comment": ""
		},
		"website": {
			"content": {
				"en": "https://jix.im/en/",
				"pl": "https://jix.im/pl/"
			},
			"comment": ""
		},
		"busFactor": {
			"content": 1,
			"source": "https://jix.im/en/donate/",
			"comment": ""
		},
		"company": {
			"content": false,
			"source": "https://jix.im/en/donate/",
			"comment": ""
		},
		"passwordReset": {
			"content": {
				"en": "https://jix.im/en/account/reset-password/",
				"pl": "https://jix.im/pl/konto/zresetuj-haslo/"
			},
			"comment": ""
		},
		"inBandRegistration": {
			"content": false,
			"source": "",
			"comment": "Tested with Kaidan; Statement about disabled in-band registration should be added to https://jix.im/en/faq/ or https://jix.im/en/register/"
		},
		"registrationWebPage": {
			"content": {
				"en": "https://jix.im/en/register/",
				"pl": "https://jix.im/pl/rejestracja/"
			},
			"comment": ""
		},
		"ratingXmppComplianceTester": {
			"content": 100,
			"source": "https://compliance.conversations.im/server/jix.im/",
			"comment": ""
		},
		"ratingImObservatoryClientToServer": {
			"content": "A",
			"source": "https://xmpp.net/result.php?domain=jix.im&type=client",
			"comment": ""
		},
		"ratingImObservatoryServerToServer": {
			"content": "A",
			"source": "https://xmpp.net/result.php?domain=jix.im&type=server",
			"comment": ""
		},
		"maximumHttpFileUploadFileSize": {
			"content": 20,
			"source": "https://jix.im/en/informations/",
			"comment": ""
		},
		"maximumHttpFileUploadTotalSize": {
			"content": 150,
			"source": "https://jix.im/en/informations/",
			"comment": ""
		},
		"maximumHttpFileUploadStorageTime": {
			"content": 14,
			"source": "https://jix.im/en/informations/",
			"comment": ""
		},
		"maximumMessageArchiveManagementStorageTime": {
			"content": 180,
			"source": "https://jix.im/en/informations/",
			"comment": ""
		},
		"professionalHosting": {
			"content": true,
			"source": "https://jix.im/en/informations/",
			"comment": "Link to hosting company should be added to website"
		},
		"freeOfCharge": {
			"content": true,
			"source": "https://jix.im/en/donate/",
			"comment": ""
		},
		"legalNotice": {
			"content": {
				"en": "https://jix.im/en/privacy-policy/",
				"pl": "https://jix.im/pl/polityka-prywatnosci/"
			},
			"comment": ""
		},
		"serverLocations": {
			"content": [
				"de"
			],
			"source": "https://jix.im/en/informations/",
			"comment": ""
		},
		"groupChatSupport": {},
		"chatSupport": {
			"en": {
				"content": [
					"im@beherit.pl"
				],
				"source": "https://jix.im/en/contact/",
				"comment": ""
			},
			"pl": {
				"content": [
					"im@beherit.pl"
				],
				"source": "https://jix.im/pl/kontakt/",
				"comment": ""
			}
		},
		"emailSupport": {},
		"since": {
			"content": "2014-04-27",
			"source": "https://jix.im/en/faq/",
			"comment": ""
		}
	},
	"lightwitch.org": {
		"lastCheck": {
			"content": "2021-04-18",
			"comment": ""
		},
		"website": {
			"content": {
				"en": "https://lightwitch.org"
			},
			"comment": ""
		},
		"busFactor": {
			"content": -1,
			"source": "",
			"comment": ""
		},
		"company": {
			"content": false,
			"source": "https://lightwitch.org/im-service",
			"comment": ""
		},
		"passwordReset": {
			"content": {
				"en": "https://lightwitch.org/xmpp/password"
			},
			"comment": ""
		},
		"inBandRegistration": {
			"content": true,
			"source": "Tested with Kaidan",
			"comment": ""
		},
		"registrationWebPage": {
			"content": {
				"en": "https://lightwitch.org/xmpp/register"
			},
			"comment": ""
		},
		"ratingXmppComplianceTester": {
			"content": 100,
			"source": "https://compliance.conversations.im/server/lightwitch.org/",
			"comment": ""
		},
		"ratingImObservatoryClientToServer": {
			"content": "A",
			"source": "https://xmpp.net/result.php?domain=lightwitch.org&type=client",
			"comment": ""
		},
		"ratingImObservatoryServerToServer": {
			"content": "A",
			"source": "https://xmpp.net/result.php?domain=lightwitch.org&type=server",
			"comment": ""
		},
		"maximumHttpFileUploadFileSize": {
			"content": 1024,
			"source": "https://lightwitch.org/im-service",
			"comment": ""
		},
		"maximumHttpFileUploadTotalSize": {
			"content": 0,
			"source": "https://lightwitch.org/im-service",
			"comment": ""
		},
		"maximumHttpFileUploadStorageTime": {
			"content": 7,
			"source": "https://lightwitch.org/im-service",
			"comment": ""
		},
		"maximumMessageArchiveManagementStorageTime": {
			"content": 30,
			"source": "https://lightwitch.org/im-service",
			"comment": "Service stores up to 23000 messages for users through MAM"
		},
		"professionalHosting": {
			"content": true,
			"source": "https://lightwitch.org/im-service",
			"comment": ""
		},
		"freeOfCharge": {
			"content": true,
			"source": "https://lightwitch.org/im-service/tos",
			"comment": ""
		},
		"legalNotice": {
			"content": {
				"en": "https://lightwitch.org/im-service/tos"
			},
			"comment": ""
		},
		"serverLocations": {
			"content": [
				"it",
				"us"
			],
			"source": "https://lightwitch.org/im-service",
			"comment": "HTTP File Upload via Italy"
		},
		"groupChatSupport": {
			"en": {
				"content": [
					"support@conference.lightwitch.org"
				],
				"source": "https://lightwitch.org/im-service/support",
				"comment": ""
			}
		},
		"chatSupport": {},
		"emailSupport": {},
		"since": {
			"content": "2017-11-03",
			"source": "https://lightwitch.org/blogger/fixed-xmpp-registration-form",
			"comment": ""
		}
	},
	"macaw.me": {
		"lastCheck": {
			"content": "2022-01-04",
			"comment": ""
		},
		"website": {
			"content": {
				"en": "https://macaw.me"
			},
			"comment": ""
		},
		"busFactor": {
			"content": 1,
			"source": "https://macaw.me/tos.html",
			"comment": ""
		},
		"company": {
			"content": false,
			"source": "https://macaw.me/about.html",
			"comment": ""
		},
		"passwordReset": {
			"content": {
				"en": "https://macaw.me/services/xmpp.html"
			},
			"comment": "Manual reset via email"
		},
		"inBandRegistration": {
			"content": true,
			"source": "Tested with Kaidan",
			"comment": ""
		},
		"registrationWebPage": {
			"content": {},
			"source": "https://macaw.me/services/xmpp.html",
			"comment": ""
		},
		"ratingXmppComplianceTester": {
			"content": 100,
			"source": "https://compliance.conversations.im/server/macaw.me/",
			"comment": ""
		},
		"ratingImObservatoryClientToServer": {
			"content": "A",
			"source": "https://xmpp.net/result.php?domain=macaw.me&type=client",
			"comment": "Rating is currently wrongly 'T' because of https://github.com/xmpp-observatory/xmppoke/issues/10"
		},
		"ratingImObservatoryServerToServer": {
			"content": "A",
			"source": "https://xmpp.net/result.php?domain=macaw.me&type=server",
			"comment": "Rating is currently wrongly 'T' because of https://github.com/xmpp-observatory/xmppoke/issues/10"
		},
		"maximumHttpFileUploadFileSize": {
			"content": 100,
			"source": "https://macaw.me/services/xmpp.html",
			"comment": ""
		},
		"maximumHttpFileUploadTotalSize": {
			"content": 0,
			"source": "https://macaw.me/services/xmpp.html",
			"comment": ""
		},
		"maximumHttpFileUploadStorageTime": {
			"content": 31,
			"source": "https://macaw.me/services/xmpp.html",
			"comment": ""
		},
		"maximumMessageArchiveManagementStorageTime": {
			"content": 31,
			"source": "https://macaw.me/services/xmpp.html",
			"comment": ""
		},
		"professionalHosting": {
			"content": true,
			"source": "https://macaw.me/services/xmpp.html",
			"comment": ""
		},
		"freeOfCharge": {
			"content": true,
			"source": "https://macaw.me/services/xmpp.html",
			"comment": ""
		},
		"legalNotice": {
			"content": {
				"en": "https://macaw.me/tos.html"
			},
			"comment": ""
		},
		"serverLocations": {
			"content": [
				"us"
			],
			"source": "https://macaw.me/services/xmpp.html",
			"comment": ""
		},
		"groupChatSupport": {
			"ru": {
				"content": [
					"support@conference.macaw.me"
				],
				"source": "https://macaw.me/services/xmpp.html",
				"comment": ""
			},
			"en": {
				"content": [
					"support@conference.macaw.me"
				],
				"source": "https://macaw.me/services/xmpp.html",
				"comment": ""
			}
		},
		"chatSupport": {
			"ru": {
				"content": [
					"administrator@macaw.me"
				],
				"source": "https://macaw.me/contact.html",
				"comment": ""
			},
			"en": {
				"content": [
					"administrator@macaw.me"
				],
				"source": "https://macaw.me/contact.html",
				"comment": ""
			}
		},
		"emailSupport": {
			"ru": {
				"content": [
					"administrator@macaw.me"
				],
				"source": "https://macaw.me/contact.html",
				"comment": ""
			},
			"en": {
				"content": [
					"administrator@macaw.me"
				],
				"source": "https://macaw.me/contact.html",
				"comment": ""
			}
		},
		"since": {
			"content": "2019-03-14",
			"source": "https://macaw.me/services/xmpp.html",
			"comment": ""
		}
	},
	"magicbroccoli.de": {
		"lastCheck": {
			"content": "2021-04-02",
			"comment": ""
		},
		"website": {
			"content": {
				"en": "https://magicbroccoli.de"
			},
			"comment": ""
		},
		"busFactor": {
			"content": -1,
			"source": "",
			"comment": ""
		},
		"company": {
			"content": false,
			"source": "https://magicbroccoli.de/aboutme/",
			"comment": ""
		},
		"passwordReset": {
			"content": {
				"en": "https://magicbroccoli.de/register/"
			},
			"comment": ""
		},
		"inBandRegistration": {
			"content": true,
			"source": "",
			"comment": "Tested with Kaidan"
		},
		"registrationWebPage": {
			"content": {
				"en": "https://magicbroccoli.de/register/"
			},
			"comment": ""
		},
		"ratingXmppComplianceTester": {
			"content": 100,
			"source": "https://compliance.conversations.im/server/magicbroccoli.de/",
			"comment": ""
		},
		"ratingImObservatoryClientToServer": {
			"content": "A",
			"source": "https://xmpp.net/result.php?domain=magicbroccoli.de&type=client",
			"comment": ""
		},
		"ratingImObservatoryServerToServer": {
			"content": "A",
			"source": "https://xmpp.net/result.php?domain=magicbroccoli.de&type=server",
			"comment": ""
		},
		"maximumHttpFileUploadFileSize": {
			"content": 30,
			"source": "https://magicbroccoli.de/technik/",
			"comment": ""
		},
		"maximumHttpFileUploadTotalSize": {
			"content": 0,
			"source": "https://magicbroccoli.de/technik/",
			"comment": ""
		},
		"maximumHttpFileUploadStorageTime": {
			"content": 30,
			"source": "https://magicbroccoli.de/technik/",
			"comment": ""
		},
		"maximumMessageArchiveManagementStorageTime": {
			"content": 90,
			"source": "https://magicbroccoli.de/technik/",
			"comment": ""
		},
		"professionalHosting": {
			"content": true,
			"source": "https://magicbroccoli.de/technik/",
			"comment": ""
		},
		"freeOfCharge": {
			"content": true,
			"source": "https://magicbroccoli.de/donate/",
			"comment": ""
		},
		"legalNotice": {
			"content": {
				"de": "https://magicbroccoli.de/datenschutz/"
			},
			"comment": ""
		},
		"serverLocations": {
			"content": [
				"de"
			],
			"source": "TODO: Insert",
			"comment": ""
		},
		"groupChatSupport": {
			"de": {
				"content": [
					"lobby@conference.magicbroccoli.de"
				],
				"source": "https://magicbroccoli.de/aboutme/",
				"comment": ""
			},
			"en": {
				"content": [
					"lobby@conference.magicbroccoli.de"
				],
				"source": "https://magicbroccoli.de/aboutme/",
				"comment": ""
			}
		},
		"chatSupport": {
			"de": {
				"content": [
					"broccoli@magicbroccoli.de"
				],
				"source": "https://magicbroccoli.de/aboutme/",
				"comment": ""
			},
			"en": {
				"content": [
					"broccoli@magicbroccoli.de"
				],
				"source": "https://magicbroccoli.de/aboutme/",
				"comment": ""
			}
		},
		"emailSupport": {
			"de": {
				"content": [
					"nico@magicbroccoli.de"
				],
				"source": "https://magicbroccoli.de/aboutme/",
				"comment": ""
			},
			"en": {
				"content": [
					"nico@magicbroccoli.de"
				],
				"source": "https://magicbroccoli.de/aboutme/",
				"comment": ""
			}
		},
		"since": {
			"content": "2017-06-20",
			"source": "https://magicbroccoli.de/post/first-post/",
			"comment": ""
		}
	},
	"mailbox.org": {
		"lastCheck": {
			"content": "2022-03-19",
			"comment": ""
		},
		"website": {
			"content": {
				"de": "https://mailbox.org/de/",
				"en": "https://mailbox.org/en/"
			},
			"comment": ""
		},
		"busFactor": {
			"content": -1,
			"source": "",
			"comment": "Statement must be added to website"
		},
		"company": {
			"content": true,
			"source": "https://mailbox.org/en/company",
			"comment": ""
		},
		"passwordReset": {
			"content": {
				"de": "https://kb.mailbox.org/de/privat/account-artikel/passwort-vergessen",
				"en": "https://kb.mailbox.org/en/private/account-article/forgotten-your-password"
			},
			"comment": ""
		},
		"inBandRegistration": {
			"content": false,
			"source": "https://kb.mailbox.org/en/private/faq-article/introduction-to-jabber-xmpp",
			"comment": ""
		},
		"registrationWebPage": {
			"content": {
				"de": "https://register.mailbox.org/de",
				"en": "https://register.mailbox.org/en"
			},
			"comment": ""
		},
		"ratingXmppComplianceTester": {
			"content": 90,
			"source": "https://compliance.conversations.im/server/mailbox.org/",
			"comment": ""
		},
		"ratingImObservatoryClientToServer": {
			"content": "A",
			"source": "https://xmpp.net/result.php?domain=mailbox.org&type=client",
			"comment": ""
		},
		"ratingImObservatoryServerToServer": {
			"content": "A",
			"source": "https://xmpp.net/result.php?domain=mailbox.org&type=server",
			"comment": ""
		},
		"maximumHttpFileUploadFileSize": {
			"content": 10,
			"source": "https://kb.mailbox.org/de/privat/videokonferenzen-und-chat/chat-mit-xmpp-und-jabber-bei-mailbox-org",
			"comment": ""
		},
		"maximumHttpFileUploadTotalSize": {
			"content": -1,
			"source": "",
			"comment": "Statement must be added to website"
		},
		"maximumHttpFileUploadStorageTime": {
			"content": -1,
			"source": "https://kb.mailbox.org/de/privat/videokonferenzen-und-chat/chat-mit-xmpp-und-jabber-bei-mailbox-org",
			"comment": "Storage time is 1 hour"
		},
		"maximumMessageArchiveManagementStorageTime": {
			"content": 7,
			"source": "https://kb.mailbox.org/de/privat/videokonferenzen-und-chat/chat-mit-xmpp-und-jabber-bei-mailbox-org",
			"comment": ""
		},
		"professionalHosting": {
			"content": true,
			"source": "https://mailbox.org/en/security",
			"comment": ""
		},
		"freeOfCharge": {
			"content": false,
			"source": "https://register.mailbox.org/en",
			"comment": ""
		},
		"legalNotice": {
			"content": {
				"de": "https://mailbox.org/de/agb-widerrufsbelehrung",
				"en": "https://mailbox.org/en/t-cs-cancellation-policy"
			}
		},
		"serverLocations": {
			"content": [
				"de"
			],
			"source": "https://kb.mailbox.org/en/private/faq-article/where-are-the-servers-located",
			"comment": ""
		},
		"groupChatSupport": {},
		"chatSupport": {},
		"emailSupport": {},
		"since": {
			"content": "2022-03-19",
			"source": "",
			"comment": "Precise date should be added to website; Current date is of initial addition"
		}
	},
	"monocles.de": {
		"lastCheck": {
			"content": "2022-01-13",
			"comment": ""
		},
		"website": {
			"content": {
				"en": "https://monocles.de"
			},
			"comment": ""
		},
		"busFactor": {
			"content": 4,
			"source": "https://monocles.de/more/#server-section",
			"comment": ""
		},
		"company": {
			"content": false,
			"source": "https://monocles.de/impressum/",
			"comment": ""
		},
		"passwordReset": {
			"content": {
				"en": "https://ocean.monocles.de/login"
			},
			"comment": ""
		},
		"inBandRegistration": {
			"content": false,
			"source": "https://monocles.de/howto/",
			"comment": "Tested with Kaidan"
		},
		"registrationWebPage": {
			"content": {
				"en": "https://ocean.monocles.de/apps/registration/"
			},
			"comment": ""
		},
		"ratingXmppComplianceTester": {
			"content": 100,
			"source": "https://compliance.conversations.im/server/monocles.de/",
			"comment": ""
		},
		"ratingImObservatoryClientToServer": {
			"content": "A",
			"source": "https://xmpp.net/result.php?domain=monocles.de&type=client",
			"comment": "Rating is currently wrongly 'T' because of https://github.com/xmpp-observatory/xmppoke/issues/10"
		},
		"ratingImObservatoryServerToServer": {
			"content": "A",
			"source": "https://xmpp.net/result.php?domain=monocles.de&type=server",
			"comment": "Rating is currently wrongly 'T' because of https://github.com/xmpp-observatory/xmppoke/issues/10"
		},
		"maximumHttpFileUploadFileSize": {
			"content": 100,
			"source": "https://monocles.de/howto/",
			"comment": ""
		},
		"maximumHttpFileUploadTotalSize": {
			"content": 0,
			"source": "https://monocles.de/howto/",
			"comment": ""
		},
		"maximumHttpFileUploadStorageTime": {
			"content": 60,
			"source": "https://monocles.de/howto/",
			"comment": ""
		},
		"maximumMessageArchiveManagementStorageTime": {
			"content": 60,
			"source": "https://monocles.de/howto/",
			"comment": ""
		},
		"professionalHosting": {
			"content": true,
			"source": "https://monocles.de/more/#server-section",
			"comment": ""
		},
		"freeOfCharge": {
			"content": false,
			"source": "https://ocean.monocles.de/apps/registration/",
			"comment": ""
		},
		"legalNotice": {
			"content": {
				"de": "https://monocles.de/impressum/de.html",
				"en": "https://monocles.de/impressum/"
			},
			"comment": ""
		},
		"serverLocations": {
			"content": [
				"de"
			],
			"source": "https://monocles.de/more/#server-section",
			"comment": ""
		},
		"groupChatSupport": {},
		"chatSupport": {
			"de": {
				"content": [
					"support@monocles.de"
				],
				"source": "https://monocles.de/howto/",
				"comment": ""
			},
			"en": {
				"content": [
					"support@monocles.de"
				],
				"source": "https://monocles.de/howto/",
				"comment": ""
			}
		},
		"emailSupport": {
			"de": {
				"content": [
					"support@monocles.de"
				],
				"source": "https://monocles.de/howto/",
				"comment": ""
			},
			"en": {
				"content": [
					"support@monocles.de"
				],
				"source": "https://monocles.de/howto/",
				"comment": ""
			}
		},
		"since": {
			"content": "2018-02-28",
			"source": "https://monocles.de/more/#server-section",
			"comment": ""
		}
	},
	"movim.eu": {
		"lastCheck": {
			"content": "2022-01-16",
			"comment": ""
		},
		"website": {
			"content": {
				"en": "https://movim.eu"
			},
			"comment": ""
		},
		"busFactor": {
			"content": 1,
			"source": "",
			"comment": "https://api.movim.eu/legals"
		},
		"company": {
			"content": false,
			"source": "https://api.movim.eu/legals",
			"comment": ""
		},
		"passwordReset": {
			"content": {
				"en": "https://api.movim.eu"
			},
			"comment": ""
		},
		"inBandRegistration": {
			"content": false,
			"source": "https://api.movim.eu/legals",
			"comment": "Tested with Kaidan"
		},
		"registrationWebPage": {
			"content": {
				"en": "https://api.movim.eu/register"
			},
			"comment": ""
		},
		"ratingXmppComplianceTester": {
			"content": 100,
			"source": "https://compliance.conversations.im/server/movim.eu/",
			"comment": ""
		},
		"ratingImObservatoryClientToServer": {
			"content": "A",
			"source": "https://xmpp.net/result.php?domain=movim.eu&type=client",
			"comment": ""
		},
		"ratingImObservatoryServerToServer": {
			"content": "A",
			"source": "https://xmpp.net/result.php?domain=movim.eu&type=server",
			"comment": ""
		},
		"maximumHttpFileUploadFileSize": {
			"content": 10,
			"source": "https://api.movim.eu/legals",
			"comment": ""
		},
		"maximumHttpFileUploadTotalSize": {
			"content": 0,
			"source": "https://api.movim.eu/legals",
			"comment": ""
		},
		"maximumHttpFileUploadStorageTime": {
			"content": 0,
			"source": "https://api.movim.eu/legals",
			"comment": ""
		},
		"maximumMessageArchiveManagementStorageTime": {
			"content": 0,
			"source": "https://api.movim.eu/legals",
			"comment": ""
		},
		"professionalHosting": {
			"content": true,
			"source": "https://api.movim.eu/legals",
			"comment": ""
		},
		"freeOfCharge": {
			"content": true,
			"source": "https://api.movim.eu/legals",
			"comment": ""
		},
		"legalNotice": {
			"content": {
				"en": "https://api.movim.eu/legals"
			},
			"comment": ""
		},
		"serverLocations": {
			"content": [
				"de",
				"fr"
			],
			"source": "https://api.movim.eu/legals",
			"comment": "XMPP server in Germany; Backups in France"
		},
		"groupChatSupport": {
			"en": {
				"content": [
					"movim@conference.movim.eu"
				],
				"source": "https://api.movim.eu/legals",
				"comment": ""
			}
		},
		"chatSupport": {},
		"emailSupport": {},
		"since": {
			"content": "2017-08-16",
			"source": "https://api.movim.eu/legals",
			"comment": ""
		}
	},
	"og.im": {
		"lastCheck": {
			"content": "2022-04-27",
			"comment": ""
		},
		"website": {
			"content": {
				"en": "https://og.im"
			},
			"comment": ""
		},
		"busFactor": {
			"content": -1,
			"source": "",
			"comment": ""
		},
		"company": {
			"content": false,
			"source": "https://og.im/",
			"comment": "No specific information listed. "
		},
		"passwordReset": {
			"content": false,
			"comment": ""
		},
		"inBandRegistration": {
			"content": true,
			"source": "",
			"comment": "Tested with Pidgen"
		},
		"registrationWebPage": {
			"content": false,
			"comment": ""
		},
		"ratingXmppComplianceTester": {
			"content": 85,
			"source": "https://compliance.conversations.im/server/og.im/",
			"comment": ""
		},
		"ratingImObservatoryClientToServer": {
			"content": "A",
			"source": "https://xmpp.net/result.php?domain=og.im&type=client",
			"comment": "Rating is currently wrongly 'T' because of https://github.com/xmpp-observatory/xmppoke/issues/10"
		},
		"ratingImObservatoryServerToServer": {
			"content": "A",
			"source": "https://xmpp.net/result.php?domain=og.im&type=server",
			"comment": "Rating is currently wrongly 'T' because of https://github.com/xmpp-observatory/xmppoke/issues/10"
		},
		"maximumHttpFileUploadFileSize": {
			"content": -1,
			"source": "",
			"comment": ""
		},
		"maximumHttpFileUploadTotalSize": {
			"content": -1,
			"source": "",
			"comment": ""
		},
		"maximumHttpFileUploadStorageTime": {
			"content": -1,
			"source": "",
			"comment": ""
		},
		"maximumMessageArchiveManagementStorageTime": {
			"content": 14,
			"source": "",
			"comment": ""
		},
		"professionalHosting": {
			"content": true,
			"source": "",
			"comment": "Hosting information listed on thier website. "
		},
		"freeOfCharge": {
			"content": true,
			"source": "",
			"comment": ""
		},
		"legalNotice": {
			"content": [
				"en"
			],
			"source": "http://www.og.im",
			"comment": ""
		},
		"serverLocations": {
			"content": [
				"en"
			],
			"source": "http://www.og.im",
			"comment": ""
		},
		"groupChatSupport": {},
		"chatSupport": {},
		"emailSupport": {
			"en": {
				"content": [
					"info@og.im"
				],
				"source": "https://og.im",
				"comment": ""
			}
		},
		"since": {
			"content": "2020-03-08",
			"source": "",
			"comment": ""
		}
	},
	"openim.de": {
		"lastCheck": {
			"content": "2022-02-17",
			"comment": ""
		},
		"website": {
			"content": {
				"de": "https://openim.de"
			},
			"comment": ""
		},
		"busFactor": {
			"content": -1,
			"source": "",
			"comment": ""
		},
		"company": {
			"content": false,
			"source": "https://openim.de/kontakt.html",
			"comment": ""
		},
		"passwordReset": {
			"content": {},
			"comment": ""
		},
		"inBandRegistration": {
			"content": true,
			"source": "Tested with Kaidan",
			"comment": ""
		},
		"registrationWebPage": {
			"content": {
				"de": "https://openim.de/register.html"
			},
			"comment": ""
		},
		"ratingXmppComplianceTester": {
			"content": 100,
			"source": "https://compliance.conversations.im/server/openim.de/",
			"comment": ""
		},
		"ratingImObservatoryClientToServer": {
			"content": "A",
			"source": "https://xmpp.net/result.php?domain=openim.de&type=client",
			"comment": ""
		},
		"ratingImObservatoryServerToServer": {
			"content": "A",
			"source": "https://xmpp.net/result.php?domain=openim.de&type=server",
			"comment": ""
		},
		"maximumHttpFileUploadFileSize": {
			"content": -1,
			"source": "",
			"comment": ""
		},
		"maximumHttpFileUploadTotalSize": {
			"content": -1,
			"source": "",
			"comment": ""
		},
		"maximumHttpFileUploadStorageTime": {
			"content": 7,
			"source": "https://openim.de/datenschutz.html",
			"comment": ""
		},
		"maximumMessageArchiveManagementStorageTime": {
			"content": 28,
			"source": "https://openim.de/datenschutz.html",
			"comment": ""
		},
		"professionalHosting": {
			"content": true,
			"source": "https://openim.de",
			"comment": ""
		},
		"freeOfCharge": {
			"content": true,
			"source": "https://openim.de/kontakt.html",
			"comment": ""
		},
		"legalNotice": {
			"content": {
				"de": "https://www.openim.de/datenschutz.html"
			},
			"comment": ""
		},
		"serverLocations": {
			"content": [
				"de"
			],
			"source": "https://openim.de",
			"comment": ""
		},
		"groupChatSupport": {
			"de": {
				"content": [
					"support@conference.jabber.de"
				],
				"source": "https://openim.de/kontakt.html",
				"comment": ""
			}
		},
		"chatSupport": {
			"de": {
				"content": [
					"sven@openim.de"
				],
				"source": "https://openim.de/kontakt.html",
				"comment": ""
			}
		},
		"emailSupport": {
			"de": {
				"content": [
					"support@openim.de"
				],
				"source": "https://openim.de/kontakt.html",
				"comment": ""
			}
		},
		"since": {
			"content": "2018-12-11",
			"source": "TODO: Insert",
			"comment": ""
		}
	},
	"pimux.de": {
		"lastCheck": {
			"content": "2021-12-22",
			"comment": ""
		},
		"website": {
			"content": {
				"de": "https://www.pimux.de"
			},
			"comment": ""
		},
		"busFactor": {
			"content": 1,
			"source": "https://www.pimux.de/page/about",
			"comment": ""
		},
		"company": {
			"content": false,
			"source": "https://www.pimux.de/page/about",
			"comment": ""
		},
		"passwordReset": {
			"content": {
				"de": "https://www.pimux.de/entry/passwort-vergessen-testphase"
			},
			"comment": "No menu entry available, only blog article"
		},
		"inBandRegistration": {
			"content": false,
			"source": "https://www.pimux.de/entry/registrierung-nur-noch-per-web-formular",
			"comment": "Tested with Kaidan; Source is no main page, only blog post"
		},
		"registrationWebPage": {
			"content": {
				"de": "https://www.pimux.de/page/registrierung"
			},
			"comment": ""
		},
		"ratingXmppComplianceTester": {
			"content": 100,
			"source": "https://compliance.conversations.im/server/pimux.de/",
			"comment": ""
		},
		"ratingImObservatoryClientToServer": {
			"content": "A",
			"source": "https://xmpp.net/result.php?domain=pimux.de&type=client",
			"comment": "Rating is currently wrongly 'T' because of https://github.com/xmpp-observatory/xmppoke/issues/10"
		},
		"ratingImObservatoryServerToServer": {
			"content": "A",
			"source": "https://xmpp.net/result.php?domain=pimux.de&type=server",
			"comment": "Rating is currently wrongly 'T' because of https://github.com/xmpp-observatory/xmppoke/issues/10"
		},
		"maximumHttpFileUploadFileSize": {
			"content": 1000,
			"source": "https://www.pimux.de/page/serverdaten",
			"comment": ""
		},
		"maximumHttpFileUploadTotalSize": {
			"content": 0,
			"source": "https://www.pimux.de/page/serverdaten",
			"comment": ""
		},
		"maximumHttpFileUploadStorageTime": {
			"content": 30,
			"source": "https://www.pimux.de/page/serverdaten",
			"comment": ""
		},
		"maximumMessageArchiveManagementStorageTime": {
			"content": 30,
			"source": "https://www.pimux.de/page/serverdaten",
			"comment": ""
		},
		"professionalHosting": {
			"content": true,
			"source": "",
			"comment": "https://www.pimux.de/page/serverdaten"
		},
		"freeOfCharge": {
			"content": true,
			"source": "https://www.pimux.de",
			"comment": ""
		},
		"legalNotice": {
			"content": {
				"en": "https://www.pimux.de/page/datenschutz"
			},
			"comment": ""
		},
		"serverLocations": {
			"content": [
				"de"
			],
			"source": "https://www.pimux.de/page/serverdaten",
			"comment": ""
		},
		"groupChatSupport": {},
		"chatSupport": {
			"de": {
				"content": [
					"finn@pimux.de"
				],
				"source": "https://www.pimux.de/page/kontakt",
				"comment": ""
			}
		},
		"emailSupport": {
			"de": {
				"content": [
					"finn@pimux.de"
				],
				"source": "https://www.pimux.de/page/kontakt",
				"comment": ""
			}
		},
		"since": {
			"content": "2016-09-11",
			"source": "https://www.pimux.de/entry/xep-0357-push-notifications-aktiviert",
			"comment": ""
		}
	},
	"sure.im": {
		"lastCheck": {
			"content": "2022-04-10",
			"comment": ""
		},
		"website": {
			"content": {
				"en": "https://sure.im"
			},
			"comment": ""
		},
		"busFactor": {
			"content": -1,
			"source": "",
			"comment": "Statement must be added to website"
		},
		"company": {
			"content": true,
			"source": "https://sure.im/terms.txt",
			"comment": ""
		},
		"passwordReset": {
			"content": {
				"en": "https://sure.im/rest/user/resetPassword"
			},
			"comment": ""
		},
		"inBandRegistration": {
			"content": true,
			"source": "https://info.tigase.im",
			"comment": "Tested with Kaidan; Client must support XEP-0004: Data Forms and email verification is required; https://info.tigase.im should be linked from https://sure.im or another reachable sub page"
		},
		"registrationWebPage": {
			"content": {},
			"comment": "https://sure.im provides a button for registration but it does not work"
		},
		"ratingXmppComplianceTester": {
			"content": 90,
			"source": "https://compliance.conversations.im/server/sure.im/",
			"comment": ""
		},
		"ratingImObservatoryClientToServer": {
			"content": "A",
			"source": "https://xmpp.net/result.php?domain=sure.im&type=client",
			"comment": ""
		},
		"ratingImObservatoryServerToServer": {
			"content": "A",
			"source": "https://xmpp.net/result.php?domain=sure.im&type=server",
			"comment": ""
		},
		"maximumHttpFileUploadFileSize": {
			"content": 20,
			"source": "https://info.tigase.im",
			"comment": "https://info.tigase.im should be linked from https://sure.im or another reachable sub page"
		},
		"maximumHttpFileUploadTotalSize": {
			"content": 0,
			"source": "https://info.tigase.im",
			"comment": "https://info.tigase.im should be linked from https://sure.im or another reachable sub page"
		},
		"maximumHttpFileUploadStorageTime": {
			"content": 365,
			"source": "https://info.tigase.im",
			"comment": "https://info.tigase.im should be linked from https://sure.im or another reachable sub page"
		},
		"maximumMessageArchiveManagementStorageTime": {
			"content": 365,
			"source": "https://info.tigase.im",
			"comment": "https://info.tigase.im should be linked from https://sure.im or another reachable sub page"
		},
		"professionalHosting": {
			"content": true,
			"source": "https://info.tigase.im",
			"comment": "https://info.tigase.im should be linked from https://sure.im or another reachable sub page"
		},
		"freeOfCharge": {
			"content": true,
			"source": "https://info.tigase.im",
			"comment": "https://info.tigase.im should be linked from https://sure.im or another reachable sub page"
		},
		"legalNotice": {
			"content": {
				"en": "https://sure.im/terms.txt"
			},
			"comment": ""
		},
		"serverLocations": {
			"content": [
				"us"
			],
			"source": "https://info.tigase.im",
			"comment": "https://info.tigase.im should be linked from https://sure.im or another reachable sub page"
		},
		"groupChatSupport": {
			"en": {
				"content": [
					"tigase@muc.tigase.org"
				],
				"source": "https://info.tigase.im",
				"comment": "https://info.tigase.im should be linked from https://sure.im or another reachable sub page"
			}
		},
		"chatSupport": {},
		"emailSupport": {},
		"since": {
			"content": "2009-12-31",
			"source": "https://info.tigase.im",
			"comment": ""
		}
	},
	"trashserver.net": {
		"lastCheck": {
			"content": "2022-02-17",
			"comment": ""
		},
		"website": {
			"content": {
				"de": "https://trashserver.net",
				"en": "https://trashserver.net/en/"
			},
			"comment": ""
		},
		"busFactor": {
			"content": -1,
			"source": "",
			"comment": "Statement must be added to https://trashserver.net/en/about-this-server/"
		},
		"company": {
			"content": false,
			"source": "https://trashserver.net/impressum/",
			"comment": ""
		},
		"passwordReset": {
			"content": {},
			"source": "https://trashserver.net/en/register/",
			"comment": ""
		},
		"inBandRegistration": {
			"content": true,
			"source": "",
			"comment": "Tested with Kaidan; Statement about disabled in-band registration should be added to https://trashserver.net/en/register/"
		},
		"registrationWebPage": {
			"content": {
				"de": "https://trashserver.net/registrieren/",
				"en": "https://trashserver.net/en/register/"
			},
			"comment": ""
		},
		"ratingXmppComplianceTester": {
			"content": 100,
			"source": "https://compliance.conversations.im/server/trashserver.net/",
			"comment": ""
		},
		"ratingImObservatoryClientToServer": {
			"content": "A",
			"source": "https://xmpp.net/result.php?domain=trashserver.net&type=client",
			"comment": "Rating is currently wrongly 'T' because of https://github.com/xmpp-observatory/xmppoke/issues/10"
		},
		"ratingImObservatoryServerToServer": {
			"content": "A",
			"source": "https://xmpp.net/result.php?domain=trashserver.net&type=server",
			"comment": "Rating is currently wrongly 'T' because of https://github.com/xmpp-observatory/xmppoke/issues/10"
		},
		"maximumHttpFileUploadFileSize": {
			"content": 100,
			"source": "https://trashserver.net/en/technics/#limits",
			"comment": ""
		},
		"maximumHttpFileUploadTotalSize": {
			"content": -1,
			"source": "",
			"comment": "Statement must be added to https://trashserver.net/en/technics/#limits"
		},
		"maximumHttpFileUploadStorageTime": {
			"content": 28,
			"source": "https://trashserver.net/en/privacy/",
			"comment": ""
		},
		"maximumMessageArchiveManagementStorageTime": {
			"content": 28,
			"source": "https://trashserver.net/en/privacy/",
			"comment": ""
		},
		"professionalHosting": {
			"content": true,
			"source": "https://trashserver.net/en/about-this-server/",
			"comment": "Statement about hosting company (name / link) and backup details (location / frequency) must be added to https://trashserver.net/en/about-this-server/"
		},
		"freeOfCharge": {
			"content": true,
			"source": "https://trashserver.net/en/support/",
			"comment": ""
		},
		"legalNotice": {
			"content": {
				"de": "https://trashserver.net/datenschutz/",
				"en": "https://trashserver.net/en/privacy/"
			},
			"comment": ""
		},
		"serverLocations": {
			"content": [
				"de"
			],
			"source": "https://trashserver.net",
			"comment": ""
		},
		"groupChatSupport": {},
		"chatSupport": {
			"de": {
				"content": [
					"admin@trashserver.net"
				],
				"source": "https://trashserver.net/kontakt/",
				"comment": ""
			},
			"en": {
				"content": [
					"admin@trashserver.net"
				],
				"source": "https://trashserver.net/en/contact/",
				"comment": ""
			}
		},
		"emailSupport": {
			"de": {
				"content": [
					"xmpp@trashserver.net"
				],
				"source": "https://trashserver.net/kontakt/",
				"comment": ""
			},
			"en": {
				"content": [
					"xmpp@trashserver.net"
				],
				"source": "https://trashserver.net/en/contact/",
				"comment": ""
			}
		},
		"since": {
			"content": "2012-12-31",
			"source": "https://trashserver.net/faq/",
			"comment": "Precise date should be added to website; Current date has only valid year from FAQ"
		}
	},
	"wiuwiu.de": {
		"lastCheck": {
			"content": "2022-01-07",
			"comment": ""
		},
		"website": {
			"content": {
				"de": "https://wiuwiu.de"
			},
			"comment": ""
		},
		"busFactor": {
			"content": -1,
			"source": "",
			"comment": "Statement must be added to https://wiuwiu.de"
		},
		"company": {
			"content": false,
			"source": "https://wiuwiu.de/Imprint/",
			"comment": ""
		},
		"passwordReset": {
			"content": {},
			"source": "https://wiuwiu.de/#more",
			"comment": ""
		},
		"inBandRegistration": {
			"content": true,
			"source": "https://wiuwiu.de/#register",
			"comment": "Tested with Kaidan; Statement about enabled in-band registration should be added to https://wiuwiu.de/#register; It should be clarified on https://wiuwiu.de/#register which kind of registration is only possible via invitations"
		},
		"registrationWebPage": {
			"content": {
				"de": "https://wiuwiu.de/#register"
			},
			"comment": ""
		},
		"ratingXmppComplianceTester": {
			"content": 100,
			"source": "https://compliance.conversations.im/server/wiuwiu.de/",
			"comment": ""
		},
		"ratingImObservatoryClientToServer": {
			"content": "A",
			"source": "https://xmpp.net/result.php?domain=wiuwiu.de&type=client",
			"comment": "Rating is currently wrongly 'T' because of https://github.com/xmpp-observatory/xmppoke/issues/10"
		},
		"ratingImObservatoryServerToServer": {
			"content": "A",
			"source": "https://xmpp.net/result.php?domain=wiuwiu.de&type=server",
			"comment": "Rating is currently wrongly 'T' because of https://github.com/xmpp-observatory/xmppoke/issues/10"
		},
		"maximumHttpFileUploadFileSize": {
			"content": -1,
			"source": "",
			"comment": "Statement must be added to https://wiuwiu.de"
		},
		"maximumHttpFileUploadTotalSize": {
			"content": -1,
			"source": "",
			"comment": "Statement must be added to https://wiuwiu.de"
		},
		"maximumHttpFileUploadStorageTime": {
			"content": 30,
			"source": "https://wiuwiu.de/Privacy/",
			"comment": "Contradictory statement with 4 weeks (28 days) should be removed from https://wiuwiu.de/Privacy/"
		},
		"maximumMessageArchiveManagementStorageTime": {
			"content": 30,
			"source": "https://wiuwiu.de/Privacy/",
			"comment": "Contradictory statement with 4 weeks (28 days) should be removed from https://wiuwiu.de/Privacy/"
		},
		"professionalHosting": {
			"content": false,
			"source": "https://wiuwiu.de",
			"comment": "Statement about hosting company (name / link) should and backup details (location / frequency) must be added to https://wiuwiu.de"
		},
		"freeOfCharge": {
			"content": true,
			"source": "https://wiuwiu.de/#more",
			"comment": "Statement about the service being 'free of charge' or 'for free' should be added to https://wiuwiu.de; Current statement 'Ein XMPP-Account ist in der Regel kostenlos.' does not mean that wiuwiu.de is free of charge"
		},
		"legalNotice": {
			"content": {
				"de": "https://wiuwiu.de/Privacy/"
			},
			"comment": ""
		},
		"serverLocations": {
			"content": [
				"de"
			],
			"source": "https://wiuwiu.de",
			"comment": ""
		},
		"groupChatSupport": {},
		"chatSupport": {},
		"emailSupport": {
			"de": {
				"content": [
					"xmpp@wiuwiu.de"
				],
				"source": "https://wiuwiu.de/Imprint/",
				"comment": ""
			}
		},
		"since": {
			"content": "2017-06-30",
			"source": "https://wiuwiu.de/index.xml",
			"comment": "Precise date should be added to website; Current date is of first blog post"
		}
	},
	"xmpp.is": {
		"lastCheck": {
			"content": "2022-02-17",
			"comment": ""
		},
		"website": {
			"content": {
				"en": "https://xmpp.is"
			},
			"comment": ""
		},
		"busFactor": {
			"content": -1,
			"source": "",
			"comment": "Statement must be added to website"
		},
		"company": {
			"content": true,
			"source": "https://xmpp.is/about/",
			"comment": "Not clear because XMPP.is is a project of Unredacted which is a project of https://ulayer.net/company/contact; Company name should be provided on https://xmpp.is"
		},
		"passwordReset": {
			"content": {
				"en": "https://xmpp.is/account/recovery/"
			},
			"comment": ""
		},
		"inBandRegistration": {
			"content": false,
			"source": "https://xmpp.is/about/server/",
			"comment": "Tested with Kaidan"
		},
		"registrationWebPage": {
			"content": {
				"en": "https://xmpp.is/account/register/xmpp_is/"
			},
			"comment": ""
		},
		"ratingXmppComplianceTester": {
			"content": 95,
			"source": "https://compliance.conversations.im/server/xmpp.is/",
			"comment": ""
		},
		"ratingImObservatoryClientToServer": {
			"content": "A",
			"source": "https://xmpp.net/result.php?domain=xmpp.is&type=client",
			"comment": "Rating is currently wrongly 'T' because of https://github.com/xmpp-observatory/xmppoke/issues/10"
		},
		"ratingImObservatoryServerToServer": {
			"content": "A",
			"source": "https://xmpp.net/result.php?domain=xmpp.is&type=server",
			"comment": "Rating is currently wrongly 'T' because of https://github.com/xmpp-observatory/xmppoke/issues/10"
		},
		"maximumHttpFileUploadFileSize": {
			"content": -1,
			"source": "",
			"comment": "Statement must be added to https://xmpp.is/about/server/"
		},
		"maximumHttpFileUploadTotalSize": {
			"content": -1,
			"source": "",
			"comment": "Statement must be added to https://xmpp.is/about/server/"
		},
		"maximumHttpFileUploadStorageTime": {
			"content": -1,
			"source": "",
			"comment": "Statement must be added to https://xmpp.is/about/server/"
		},
		"maximumMessageArchiveManagementStorageTime": {
			"content": -1,
			"source": "",
			"comment": "Statement must be added to https://xmpp.is/about/server/"
		},
		"professionalHosting": {
			"content": true,
			"source": "https://xmpp.is/about/server/",
			"comment": "Statement about backup details (location / frequency) must be added to https://xmpp.is/about/server/"
		},
		"freeOfCharge": {
			"content": true,
			"source": "https://xmpp.is/about/",
			"comment": ""
		},
		"legalNotice": {
			"content": {
				"en": "https://xmpp.is/about/tos-aup/"
			},
			"comment": ""
		},
		"serverLocations": {
			"content": [],
			"source": "",
			"comment": "Statement about location/s of the server/s (at least country) must be added to https://xmpp.is/about/server/"
		},
		"groupChatSupport": {},
		"chatSupport": {},
		"emailSupport": {
			"en": {
				"content": [
					"admin@xmpp.is"
				],
				"source": "https://xmpp.is/contact/",
				"comment": ""
			}
		},
		"since": {
			"content": "2015-05-19",
			"source": "https://xmpp.is/2015/05/19/xmpp-is-launched/",
			"comment": ""
		}
	},
	"yax.im": {
		"lastCheck": {
			"content": "2022-02-17",
			"comment": ""
		},
		"website": {
			"content": {
				"en": "https://yaxim.org/yax.im/"
			},
			"comment": ""
		},
		"busFactor": {
			"content": -1,
			"source": "",
			"comment": ""
		},
		"company": {
			"content": false,
			"source": "https://yaxim.org/yax.im/tos/",
			"comment": ""
		},
		"passwordReset": {
			"content": {},
			"source": "https://yaxim.org/yax.im/",
			"comment": ""
		},
		"inBandRegistration": {
			"content": true,
			"source": "https://yaxim.org/yax.im/",
			"comment": ""
		},
		"registrationWebPage": {
			"content": {},
			"source": "https://yaxim.org/yax.im/",
			"comment": ""
		},
		"ratingXmppComplianceTester": {
			"content": 90,
			"source": "https://compliance.conversations.im/server/yax.im/",
			"comment": ""
		},
		"ratingImObservatoryClientToServer": {
			"content": "A",
			"source": "https://xmpp.net/result.php?domain=yax.im&type=client",
			"comment": ""
		},
		"ratingImObservatoryServerToServer": {
			"content": "A",
			"source": "https://xmpp.net/result.php?domain=yax.im&type=server",
			"comment": ""
		},
		"maximumHttpFileUploadFileSize": {
			"content": 75,
			"source": "",
			"comment": ""
		},
		"maximumHttpFileUploadTotalSize": {
			"content": 0,
			"source": "",
			"comment": ""
		},
		"maximumHttpFileUploadStorageTime": {
			"content": 30,
			"source": "https://yaxim.org/yax.im/privacy/",
			"comment": ""
		},
		"maximumMessageArchiveManagementStorageTime": {
			"content": 14,
			"source": "https://yaxim.org/yax.im/privacy/",
			"comment": ""
		},
		"professionalHosting": {
			"content": false,
			"source": "",
			"comment": ""
		},
		"freeOfCharge": {
			"content": true,
			"source": "https://yaxim.org/yax.im/",
			"comment": ""
		},
		"legalNotice": {
			"content": {
				"en": "https://yaxim.org/yax.im/tos/"
			},
			"comment": ""
		},
		"serverLocations": {
			"content": [
				"de"
			],
			"source": "https://yaxim.org/yax.im/",
			"comment": ""
		},
		"groupChatSupport": {
			"en": {
				"content": [
					"yaxim@chat.yax.im"
				],
				"source": "https://yaxim.org",
				"comment": ""
			}
		},
		"chatSupport": {
			"de": {
				"content": [],
				"source": "",
				"comment": "georg@yax.im: German should be supported but a source could not be found"
			},
			"en": {
				"content": [
					"georg@yax.im"
				],
				"source": "https://yaxim.org/yax.im/privacy/",
				"comment": ""
			}
		},
		"emailSupport": {
			"de": {
				"content": [],
				"source": "",
				"comment": "georg@yax.im: German should be supported but a source could not be found"
			},
			"en": {
				"content": [
					"georg@yax.im"
				],
				"source": "https://yaxim.org/yax.im/privacy/",
				"comment": ""
			}
		},
		"since": {
			"content": "2013-12-27",
			"source": "https://yaxim.org/yax.im/",
			"comment": ""
		}
	}
}
